419852018-10-02 16:001001
415322018-10-02 16:001001
417102018-10-02 16:001001
415912018-10-02 16:001001
402162018-10-02 16:001001
570212018-10-02 16:011001
415752018-10-02 16:031001
402262018-10-02 17:001001
418352018-10-02 17:001001
570222018-10-02 17:001001
580672018-10-02 17:001001
416762018-10-02 17:001001
650042018-10-02 17:011001
560292018-10-02 17:011001
580172018-10-02 17:031001
650052018-10-02 17:031001
560252018-10-02 18:141001
416652018-10-02 18:391001
560132018-10-02 18:391001
650122018-10-02 18:411001
417542018-10-02 18:431001
418532018-10-02 18:441001
418532018-10-02 18:441001
415702018-10-02 18:441001
350062018-10-02 18:451001
650142018-10-02 18:451001
560072018-10-02 18:461001
560122018-10-02 18:471001
415462018-10-02 18:471001
416482018-10-02 18:491001
560062018-10-02 18:501001
560092018-10-02 18:501001
570202018-10-02 18:501001
418102018-10-02 18:511001
580642018-10-02 18:511001
580662018-10-02 18:511001
560102018-10-02 18:511001
417642018-10-02 18:521001
560322018-10-02 18:531001
419532018-10-02 18:541001
417532018-10-02 18:551001
416472018-10-02 18:561001
418272018-10-02 18:571001
415662018-10-02 18:571001
570172018-10-02 18:571001
560112018-10-02 18:571001
580382018-10-02 18:571001
560312018-10-02 18:581001
563002018-10-02 19:001001
560012018-10-02 19:001001
417372018-10-02 19:001001
417232018-10-02 19:001001
417962018-10-02 19:001001
418172018-10-02 19:001001
418122018-10-02 19:001001
416612018-10-02 19:001001
580892018-10-02 19:001001
560032018-10-02 19:001001
570242018-10-02 19:001001
580682018-10-02 19:001001
560302018-10-02 19:001001
580112018-10-02 19:001001
419992018-10-02 19:001001
560022018-10-02 19:001001
560052018-10-02 19:001001
580652018-10-02 19:001001
580862018-10-02 19:001001
417222018-10-02 19:001001
418962018-10-02 19:011001
418452018-10-02 19:011001
419932018-10-02 19:011001
416322018-10-02 19:011001
416322018-10-02 19:011001
418752018-10-02 19:011001
417052018-10-02 19:011001
418012018-10-02 19:011001
401632018-10-02 19:011001
419642018-10-02 19:011001
580882018-10-02 19:011001
419112018-10-02 19:011001
570822018-10-02 19:011001
650032018-10-02 19:011001
500212018-10-02 19:011001
650132018-10-02 19:011001
350312018-10-02 19:011001
403572018-10-02 19:041001
401452018-10-02 19:051001
418272018-10-03 00:001001
417542018-10-03 00:001001
350062018-10-03 00:001001
560312018-10-03 00:011001
570172018-10-03 00:011001
418102018-10-03 00:011001
560102018-10-03 00:011001
560112018-10-03 00:011001
415702018-10-03 00:011001
580662018-10-03 00:011001
580382018-10-03 00:011001
560252018-10-03 00:021001
416482018-10-03 00:021001
560092018-10-03 00:021001
560062018-10-03 00:031001
415662018-10-03 00:031001
570202018-10-03 00:031001
416472018-10-03 00:031001
416652018-10-03 00:041001
560122018-10-03 00:041001
560322018-10-03 00:071001
419532018-10-03 00:071001
417642018-10-03 00:131001
417542018-10-03 00:161001
417542018-10-03 00:161001
418272018-10-03 00:171001
350062018-10-03 00:181001
560092018-10-03 00:181001
580662018-10-03 00:201001
580382018-10-03 00:201001
560312018-10-03 00:211001
560112018-10-03 00:211001
560102018-10-03 00:211001
416472018-10-03 00:251001
560122018-10-03 00:261001
416482018-10-03 00:281001
560322018-10-03 00:291001
418102018-10-03 00:291001
570172018-10-03 00:311001
560252018-10-03 00:341001
560062018-10-03 00:341001
419532018-10-03 00:351001
570202018-10-03 00:361001
415702018-10-03 00:371001
415662018-10-03 00:391001
415662018-10-03 00:401001
416652018-10-03 00:431001
417642018-10-03 00:521001
560132018-10-03 01:011001
418532018-10-03 01:031001
417532018-10-03 01:031001
560072018-10-03 01:041001
580642018-10-03 01:041001
415462018-10-03 01:051001
560132018-10-03 01:241001
418532018-10-03 01:251001
415462018-10-03 01:251001
417532018-10-03 01:341001
560072018-10-03 01:361001
580642018-10-03 01:371001
416472018-10-03 04:031001
417642018-10-03 04:031001
401632018-10-03 06:311001
580112018-10-03 06:311001
416612018-10-03 06:331001
402262018-10-03 06:331001
416322018-10-03 06:351001
418962018-10-03 06:371001
417222018-10-03 06:391001
560022018-10-03 06:391001
560302018-10-03 06:391001
580892018-10-03 06:401001
570242018-10-03 06:401001
419572018-10-03 06:401001
580682018-10-03 06:411001
650032018-10-03 06:421001
560032018-10-03 06:431001
416762018-10-03 06:441001
418452018-10-03 06:441001
419852018-10-03 06:441001
580862018-10-03 06:441001
415322018-10-03 06:451001
580672018-10-03 06:451001
403572018-10-03 06:451001
417372018-10-03 06:461001
580652018-10-03 06:471001
417232018-10-03 06:481001
415912018-10-03 06:481001
418172018-10-03 06:491001
570222018-10-03 06:491001
650042018-10-03 06:491001
650132018-10-03 06:501001
560052018-10-03 06:501001
418352018-10-03 06:511001
419642018-10-03 06:511001
580172018-10-03 06:511001
563002018-10-03 06:521001
570822018-10-03 06:531001
419932018-10-03 06:531001
650052018-10-03 06:531001
418752018-10-03 06:541001
417102018-10-03 06:541001
418012018-10-03 06:551001
415752018-10-03 06:551001
418122018-10-03 06:551001
417052018-10-03 06:551001
500212018-10-03 06:561001
350312018-10-03 06:571001
419992018-10-03 06:581001
560012018-10-03 06:591001
418102018-10-03 07:001001
560072018-10-03 07:001001
570202018-10-03 07:001001
560102018-10-03 07:001001
417542018-10-03 07:001001
560292018-10-03 07:001001
418532018-10-03 07:001001
580642018-10-03 07:001001
560252018-10-03 07:001001
560092018-10-03 07:001001
580882018-10-03 07:001001
417532018-10-03 07:001001
560112018-10-03 07:001001
560062018-10-03 07:001001
560322018-10-03 07:001001
419532018-10-03 07:001001
560312018-10-03 07:001001
402162018-10-03 07:011001
560132018-10-03 07:011001
570172018-10-03 07:011001
415462018-10-03 07:011001
418272018-10-03 07:011001
416482018-10-03 07:011001
415702018-10-03 07:011001
416652018-10-03 07:011001
580662018-10-03 07:011001
415662018-10-03 07:011001
560122018-10-03 07:011001
650122018-10-03 07:011001
350062018-10-03 07:021001
417962018-10-03 07:021001
650142018-10-03 07:021001
419112018-10-03 07:051001
580382018-10-03 07:061001
401452018-10-03 07:111001
