401632018-10-04 12:001001
417222018-10-04 12:001001
419852018-10-04 12:001001
580892018-10-04 12:001001
580882018-10-04 12:001001
419572018-10-04 12:001001
560052018-10-04 12:001001
580862018-10-04 12:001001
580672018-10-04 12:011001
419992018-10-04 12:011001
563002018-10-04 12:011001
416322018-10-04 12:011001
402262018-10-04 12:011001
560302018-10-04 12:011001
415322018-10-04 12:011001
570222018-10-04 12:011001
650032018-10-04 12:011001
417232018-10-04 12:011001
418172018-10-04 12:011001
415752018-10-04 12:011001
402162018-10-04 12:011001
570242018-10-04 12:021001
560012018-10-04 12:021001
580682018-10-04 12:021001
403572018-10-04 12:021001
401452018-10-04 12:021001
350312018-10-04 12:021001
650052018-10-04 12:021001
650042018-10-04 12:021001
416612018-10-04 12:021001
417372018-10-04 12:031001
580112018-10-04 12:031001
580112018-10-04 12:031001
560022018-10-04 12:031001
580652018-10-04 12:031001
418452018-10-04 12:031001
417962018-10-04 12:041001
570822018-10-04 12:041001
419932018-10-04 12:041001
416762018-10-04 12:051001
418122018-10-04 12:051001
419112018-10-04 12:051001
560292018-10-04 12:051001
417102018-10-04 12:051001
419852018-10-04 12:171001
580882018-10-04 12:171001
418172018-10-04 12:171001
650052018-10-04 12:171001
650042018-10-04 12:171001
416612018-10-04 12:171001
580892018-10-04 12:181001
419572018-10-04 12:181001
415322018-10-04 12:181001
417222018-10-04 12:181001
350312018-10-04 12:211001
417372018-10-04 12:211001
415752018-10-04 12:221001
417232018-10-04 12:221001
570242018-10-04 12:231001
402262018-10-04 12:231001
415912018-10-04 12:251001
580652018-10-04 12:251001
560022018-10-04 12:261001
560032018-10-04 12:261001
419992018-10-04 12:261001
580112018-10-04 12:281001
560292018-10-04 12:281001
580682018-10-04 12:301001
650032018-10-04 12:301001
403572018-10-04 12:321001
418122018-10-04 12:351001
580672018-10-04 12:381001
401632018-10-04 12:381001
416322018-10-04 12:391001
580862018-10-04 12:401001
560012018-10-04 12:401001
418452018-10-04 12:411001
560052018-10-04 12:411001
570222018-10-04 12:421001
415912018-10-04 12:421001
563002018-10-04 12:461001
419932018-10-04 12:461001
401452018-10-04 12:471001
402162018-10-04 12:481001
570822018-10-04 12:541001
560032018-10-04 12:541001
417962018-10-04 12:551001
419112018-10-04 12:591001
418352018-10-04 13:001001
418752018-10-04 13:001001
500212018-10-04 13:001001
419642018-10-04 13:011001
418012018-10-04 13:061001
418752018-10-04 13:321001
500212018-10-04 13:481001
418352018-10-04 13:531001
419642018-10-04 13:551001
418012018-10-04 13:551001
419852018-10-04 16:001001
419572018-10-04 16:001001
350312018-10-04 16:001001
415912018-10-04 16:061001
401452018-10-04 16:151001
650042018-10-04 17:001001
402262018-10-04 17:001001
560292018-10-04 17:001001
650052018-10-04 17:011001
560252018-10-04 18:261001
650142018-10-04 18:321001
560132018-10-04 18:381001
650122018-10-04 18:421001
350062018-10-04 18:421001
416652018-10-04 18:421001
418532018-10-04 18:441001
418532018-10-04 18:441001
415702018-10-04 18:451001
417542018-10-04 18:451001
580662018-10-04 18:461001
560072018-10-04 18:471001
560122018-10-04 18:481001
560102018-10-04 18:491001
560102018-10-04 18:491001
417642018-10-04 18:491001
416482018-10-04 18:501001
580642018-10-04 18:501001
415462018-10-04 18:511001
419532018-10-04 18:511001
560322018-10-04 18:511001
560092018-10-04 18:531001
560062018-10-04 18:531001
418102018-10-04 18:551001
417532018-10-04 18:561001
560312018-10-04 18:561001
415662018-10-04 18:561001
560112018-10-04 18:561001
418272018-10-04 18:561001
570172018-10-04 18:571001
580382018-10-04 18:571001
416472018-10-04 18:571001
570462018-10-04 18:581001
570202018-10-04 18:591001
563002018-10-04 19:001001
580672018-10-04 19:001001
417222018-10-04 19:001001
418172018-10-04 19:001001
580882018-10-04 19:001001
416612018-10-04 19:001001
580862018-10-04 19:001001
580892018-10-04 19:001001
416322018-10-04 19:001001
415752018-10-04 19:001001
418752018-10-04 19:001001
418122018-10-04 19:001001
419932018-10-04 19:001001
415322018-10-04 19:001001
570242018-10-04 19:001001
418352018-10-04 19:001001
560302018-10-04 19:001001
560012018-10-04 19:001001
580682018-10-04 19:011001
580682018-10-04 19:011001
417232018-10-04 19:011001
401632018-10-04 19:011001
580652018-10-04 19:011001
417102018-10-04 19:011001
419112018-10-04 19:011001
417372018-10-04 19:011001
418452018-10-04 19:011001
560022018-10-04 19:011001
419642018-10-04 19:011001
417962018-10-04 19:011001
560052018-10-04 19:011001
403572018-10-04 19:011001
580112018-10-04 19:011001
570822018-10-04 19:011001
419992018-10-04 19:011001
560032018-10-04 19:011001
418012018-10-04 19:011001
570222018-10-04 19:011001
650032018-10-04 19:021001
500212018-10-04 19:021001
402162018-10-04 19:021001
350062018-10-05 00:001001
560312018-10-05 00:001001
415662018-10-05 00:001001
418102018-10-05 00:001001
570172018-10-05 00:001001
560062018-10-05 00:001001
560252018-10-05 00:001001
570202018-10-05 00:011001
560122018-10-05 00:011001
560092018-10-05 00:011001
560092018-10-05 00:011001
418272018-10-05 00:011001
416482018-10-05 00:011001
416652018-10-05 00:011001
417542018-10-05 00:011001
580662018-10-05 00:021001
416472018-10-05 00:031001
419532018-10-05 00:031001
560322018-10-05 00:031001
580382018-10-05 00:041001
560102018-10-05 00:041001
560112018-10-05 00:041001
415702018-10-05 00:041001
570462018-10-05 00:041001
417642018-10-05 00:041001
560092018-10-05 00:191001
418272018-10-05 00:211001
350062018-10-05 00:231001
580382018-10-05 00:251001
415662018-10-05 00:271001
580662018-10-05 00:271001
415702018-10-05 00:281001
570462018-10-05 00:281001
417642018-10-05 00:291001
560122018-10-05 00:291001
560102018-10-05 00:291001
570202018-10-05 00:291001
560312018-10-05 00:301001
560112018-10-05 00:301001
416652018-10-05 00:301001
416472018-10-05 00:311001
560252018-10-05 00:341001
560062018-10-05 00:351001
416482018-10-05 00:361001
570172018-10-05 00:381001
560322018-10-05 00:381001
419532018-10-05 00:411001
418102018-10-05 00:521001
418532018-10-05 01:001001
580642018-10-05 01:001001
560132018-10-05 01:011001
417532018-10-05 01:031001
415462018-10-05 01:041001
560132018-10-05 01:221001
580642018-10-05 01:241001
418532018-10-05 01:271001
415462018-10-05 01:311001
417532018-10-05 01:311001
560072018-10-05 01:471001
418962018-10-05 06:301001
418172018-10-05 06:311001
402262018-10-05 06:321001
416612018-10-05 06:341001
580112018-10-05 06:361001
560022018-10-05 06:361001
401452018-10-05 06:371001
580862018-10-05 06:391001
570242018-10-05 06:401001
419852018-10-05 06:401001
417222018-10-05 06:401001
416322018-10-05 06:401001
560302018-10-05 06:401001
650032018-10-05 06:401001
580892018-10-05 06:401001
580682018-10-05 06:401001
580682018-10-05 06:411001
415912018-10-05 06:411001
417372018-10-05 06:421001
401632018-10-05 06:431001
580672018-10-05 06:431001
417102018-10-05 06:431001
418352018-10-05 06:441001
560032018-10-05 06:451001
650042018-10-05 06:481001
563002018-10-05 06:481001
403572018-10-05 06:481001
570822018-10-05 06:491001
580172018-10-05 06:491001
417232018-10-05 06:491001
650052018-10-05 06:501001
580652018-10-05 06:501001
570222018-10-05 06:501001
560052018-10-05 06:511001
418122018-10-05 06:511001
418452018-10-05 06:511001
350312018-10-05 06:511001
418012018-10-05 06:521001
418752018-10-05 06:531001
415752018-10-05 06:531001
419572018-10-05 06:531001
500212018-10-05 06:531001
415322018-10-05 06:541001
570212018-10-05 06:541001
419112018-10-05 06:541001
580882018-10-05 06:551001
560012018-10-05 06:551001
419642018-10-05 06:561001
417962018-10-05 06:581001
560292018-10-05 06:581001
419992018-10-05 06:591001
402162018-10-05 06:591001
419932018-10-05 06:591001
570202018-10-05 07:001001
560072018-10-05 07:001001
418102018-10-05 07:001001
417542018-10-05 07:001001
418532018-10-05 07:001001
580642018-10-05 07:001001
418272018-10-05 07:001001
570462018-10-05 07:001001
417642018-10-05 07:001001
570172018-10-05 07:001001
580662018-10-05 07:001001
560312018-10-05 07:001001
419532018-10-05 07:001001
560322018-10-05 07:001001
417532018-10-05 07:001001
416482018-10-05 07:001001
415702018-10-05 07:001001
416652018-10-05 07:001001
415462018-10-05 07:001001
560092018-10-05 07:011001
560102018-10-05 07:011001
560112018-10-05 07:011001
560062018-10-05 07:011001
416472018-10-05 07:011001
560122018-10-05 07:011001
560132018-10-05 07:011001
650122018-10-05 07:011001
560252018-10-05 07:011001
415662018-10-05 07:011001
650142018-10-05 07:031001
580382018-10-05 07:091001
350062018-10-05 08:021001
