418102018-10-18 12:001001
580672018-10-18 12:001001
417222018-10-18 12:001001
570202018-10-18 12:001001
417542018-10-18 12:001001
560062018-10-18 12:001001
560092018-10-18 12:001001
560312018-10-18 12:001001
419852018-10-18 12:001001
419532018-10-18 12:001001
416322018-10-18 12:001001
650032018-10-18 12:001001
418452018-10-18 12:001001
419932018-10-18 12:001001
580862018-10-18 12:001001
560012018-10-18 12:001001
560112018-10-18 12:001001
415662018-10-18 12:001001
570462018-10-18 12:001001
580382018-10-18 12:001001
580662018-10-18 12:011001
560102018-10-18 12:011001
401632018-10-18 12:011001
415322018-10-18 12:011001
563002018-10-18 12:011001
416762018-10-18 12:011001
650052018-10-18 12:011001
650042018-10-18 12:011001
402162018-10-18 12:011001
560252018-10-18 12:011001
403572018-10-18 12:011001
570222018-10-18 12:011001
650122018-10-18 12:011001
402262018-10-18 12:021001
415702018-10-18 12:021001
418272018-10-18 12:021001
417642018-10-18 12:021001
570212018-10-18 12:021001
416482018-10-18 12:021001
350312018-10-18 12:021001
416472018-10-18 12:031001
570172018-10-18 12:031001
416652018-10-18 12:031001
580172018-10-18 12:031001
560122018-10-18 12:041001
560292018-10-18 12:061001
560322018-10-18 12:061001
419852018-10-18 12:181001
415322018-10-18 12:181001
570212018-10-18 12:181001
417222018-10-18 12:191001
416762018-10-18 12:201001
570202018-10-18 12:201001
401632018-10-18 12:211001
418272018-10-18 12:211001
580892018-10-18 12:221001
560322018-10-18 12:221001
650042018-10-18 12:251001
650052018-10-18 12:251001
416612018-10-18 12:261001
350312018-10-18 12:261001
402262018-10-18 12:281001
416482018-10-18 12:331001
560122018-10-18 12:351001
560012018-10-18 12:351001
415702018-10-18 12:351001
560102018-10-18 12:351001
580662018-10-18 12:351001
415662018-10-18 12:361001
570462018-10-18 12:361001
650122018-10-18 12:361001
570172018-10-18 12:371001
580892018-10-18 12:371001
419932018-10-18 12:381001
563002018-10-18 12:381001
417642018-10-18 12:391001
416612018-10-18 12:411001
560292018-10-18 12:411001
419532018-10-18 12:411001
416322018-10-18 12:431001
560252018-10-18 12:441001
580672018-10-18 12:461001
417542018-10-18 12:471001
650032018-10-18 12:471001
560062018-10-18 12:491001
580862018-10-18 12:491001
418452018-10-18 12:491001
418452018-10-18 12:491001
570222018-10-18 12:501001
403572018-10-18 12:501001
402162018-10-18 12:501001
560092018-10-18 12:521001
416652018-10-18 12:541001
580382018-10-18 12:551001
560112018-10-18 12:551001
560312018-10-18 12:561001
416482018-10-18 12:571001
416472018-10-18 12:571001
560072018-10-18 13:001001
417532018-10-18 13:001001
650142018-10-18 13:001001
415462018-10-18 13:001001
560132018-10-18 13:011001
580642018-10-18 13:011001
418532018-10-18 13:031001
560132018-10-18 13:261001
650142018-10-18 13:271001
580642018-10-18 13:291001
415462018-10-18 13:401001
417532018-10-18 13:561001
560072018-10-18 13:561001
560062018-10-18 16:001001
570202018-10-18 16:001001
570172018-10-18 16:001001
560072018-10-18 16:001001
570212018-10-18 16:001001
415462018-10-18 16:021001
402262018-10-18 17:001001
418452018-10-18 17:001001
560292018-10-18 17:001001
650032018-10-18 17:001001
416762018-10-18 17:001001
650042018-10-18 17:011001
650052018-10-18 17:011001
417102018-10-18 18:261001
580112018-10-18 18:311001
560022018-10-18 18:321001
418752018-10-18 18:341001
418172018-10-18 18:351001
650132018-10-18 18:361001
500212018-10-18 18:371001
350062018-10-18 18:401001
560052018-10-18 18:411001
419572018-10-18 18:411001
415912018-10-18 18:411001
560302018-10-18 18:431001
418012018-10-18 18:471001
417962018-10-18 18:471001
417232018-10-18 18:481001
570242018-10-18 18:481001
580682018-10-18 18:481001
580652018-10-18 18:481001
418122018-10-18 18:501001
419112018-10-18 18:501001
418962018-10-18 18:511001
560032018-10-18 18:511001
418352018-10-18 18:511001
415752018-10-18 18:511001
419992018-10-18 18:521001
417372018-10-18 18:531001
570822018-10-18 18:561001
580882018-10-18 18:561001
417052018-10-18 18:581001
419642018-10-18 18:581001
580672018-10-18 19:001001
417542018-10-18 19:001001
402162018-10-18 19:001001
418532018-10-18 19:001001
416612018-10-18 19:001001
580642018-10-18 19:001001
417222018-10-18 19:001001
580892018-10-18 19:001001
416322018-10-18 19:001001
560092018-10-18 19:001001
415322018-10-18 19:001001
563002018-10-18 19:001001
419852018-10-18 19:001001
580862018-10-18 19:001001
560102018-10-18 19:001001
560012018-10-18 19:011001
560252018-10-18 19:011001
417532018-10-18 19:011001
419932018-10-18 19:011001
415702018-10-18 19:011001
560322018-10-18 19:011001
560312018-10-18 19:011001
560112018-10-18 19:011001
418272018-10-18 19:011001
570462018-10-18 19:011001
560132018-10-18 19:011001
401632018-10-18 19:011001
580662018-10-18 19:011001
416652018-10-18 19:011001
570222018-10-18 19:011001
417642018-10-18 19:021001
416472018-10-18 19:021001
560122018-10-18 19:021001
580382018-10-18 19:021001
416482018-10-18 19:021001
415662018-10-18 19:021001
403572018-10-18 19:021001
650122018-10-18 19:021001
350312018-10-18 19:021001
419532018-10-18 19:021001
650142018-10-18 19:031001
401452018-10-18 19:251001
350062018-10-19 00:001001
418962018-10-19 00:001001
417962018-10-19 00:001001
580682018-10-19 00:001001
570242018-10-19 00:001001
560052018-10-19 00:011001
560022018-10-19 00:011001
560302018-10-19 00:011001
417232018-10-19 00:011001
580652018-10-19 00:021001
419572018-10-19 00:021001
419572018-10-19 00:021001
417372018-10-19 00:021001
419992018-10-19 00:021001
560032018-10-19 00:021001
415912018-10-19 00:031001
418122018-10-19 00:031001
417102018-10-19 00:031001
417052018-10-19 00:041001
580112018-10-19 00:051001
580112018-10-19 00:051001
401452018-10-19 00:061001
419112018-10-19 00:071001
570822018-10-19 00:071001
418172018-10-19 00:101001
415752018-10-19 00:121001
560052018-10-19 00:181001
580882018-10-19 00:181001
560022018-10-19 00:181001
560032018-10-19 00:191001
419992018-10-19 00:191001
417102018-10-19 00:201001
415912018-10-19 00:201001
418962018-10-19 00:201001
570242018-10-19 00:211001
580682018-10-19 00:221001
417372018-10-19 00:231001
419572018-10-19 00:231001
560302018-10-19 00:241001
417232018-10-19 00:241001
350062018-10-19 00:261001
580882018-10-19 00:281001
580652018-10-19 00:311001
418122018-10-19 00:311001
415752018-10-19 00:331001
418172018-10-19 00:341001
580112018-10-19 00:401001
401452018-10-19 00:431001
570822018-10-19 00:461001
419112018-10-19 00:501001
417052018-10-19 00:501001
419642018-10-19 01:001001
418752018-10-19 01:001001
418352018-10-19 01:031001
418352018-10-19 01:211001
418752018-10-19 01:231001
418012018-10-19 01:231001
419642018-10-19 01:311001
418012018-10-19 01:541001
418122018-10-19 04:011001
417052018-10-19 04:021001
416652018-10-19 06:321001
580862018-10-19 06:341001
416322018-10-19 06:341001
402262018-10-19 06:361001
560132018-10-19 06:371001
560252018-10-19 06:401001
415462018-10-19 06:401001
418452018-10-19 06:411001
419852018-10-19 06:411001
401632018-10-19 06:411001
418102018-10-19 06:421001
416612018-10-19 06:421001
570222018-10-19 06:431001
417222018-10-19 06:431001
560012018-10-19 06:431001
418532018-10-19 06:431001
580672018-10-19 06:441001
650142018-10-19 06:441001
417542018-10-19 06:451001
417542018-10-19 06:451001
415702018-10-19 06:451001
560322018-10-19 06:451001
650042018-10-19 06:471001
403572018-10-19 06:471001
650032018-10-19 06:471001
416762018-10-19 06:471001
650122018-10-19 06:481001
560122018-10-19 06:481001
560102018-10-19 06:491001
418532018-10-19 06:501001
650052018-10-19 06:511001
416482018-10-19 06:511001
560092018-10-19 06:521001
560062018-10-19 06:521001
350312018-10-19 06:521001
415322018-10-19 06:521001
417532018-10-19 06:521001
580662018-10-19 06:531001
580642018-10-19 06:531001
570202018-10-19 06:541001
580172018-10-19 06:561001
580172018-10-19 06:561001
560112018-10-19 06:561001
580382018-10-19 06:561001
570212018-10-19 06:561001
419932018-10-19 06:571001
416472018-10-19 06:571001
415662018-10-19 06:571001
570172018-10-19 06:571001
560072018-10-19 06:571001
417642018-10-19 06:571001
563002018-10-19 06:571001
419532018-10-19 06:571001
418272018-10-19 06:571001
570462018-10-19 06:581001
560312018-10-19 06:581001
560292018-10-19 06:591001
570242018-10-19 07:001001
580682018-10-19 07:001001
418962018-10-19 07:001001
580112018-10-19 07:001001
560302018-10-19 07:001001
580882018-10-19 07:001001
418172018-10-19 07:001001
417102018-10-19 07:001001
417232018-10-19 07:001001
560032018-10-19 07:001001
418012018-10-19 07:001001
418352018-10-19 07:001001
560052018-10-19 07:001001
560022018-10-19 07:001001
419992018-10-19 07:001001
419642018-10-19 07:001001
580652018-10-19 07:001001
419572018-10-19 07:001001
418752018-10-19 07:001001
417372018-10-19 07:001001
415912018-10-19 07:011001
419112018-10-19 07:011001
570822018-10-19 07:011001
650132018-10-19 07:011001
417962018-10-19 07:031001
415752018-10-19 07:031001
401452018-10-19 07:041001
401452018-10-19 07:051001
401452018-10-19 07:051001
401452018-10-19 07:051001
500212018-10-19 07:051001
402162018-10-19 07:061001
350062018-10-19 08:041001
