id,id_karyawan,nama,role,kelompok,password,jk,jabatan,alamat,keterangan
10001,G10001,Farid,A,3,827ccb0eea8a706c4c34a16891f84e7b,L,Tetap,Gresik,
10002,G10002,Farid,P,3,827ccb0eea8a706c4c34a16891f84e7b,L,Tetap,Gresik,
56007,GE0007,Halimin,Produksi,1,827ccb0eea8a706c4c34a16891f84e7b,L,Karyawan Outsourcing,Gresik,
56010,GE0010,Afandi Zain,Produksi,1,827ccb0eea8a706c4c34a16891f84e7b,L,Karyawan Outsourcing,Gresik,
56025,GE0025,M. Amirul Nizar,Produksi,1,827ccb0eea8a706c4c34a16891f84e7b,L,Karyawan Outsourcing,Surabaya,
56031,GE0031,A. Sichun M,Produksi,1,827ccb0eea8a706c4c34a16891f84e7b,L,Karyawan Outsourcing,Surabaya,
56006,GE0037,M. Alvin Ardian,Produksi,1,827ccb0eea8a706c4c34a16891f84e7b,L,Karyawan Outsourcing,Surabaya,
56009,GE0038,Akhmad Fauzi,Produksi,1,827ccb0eea8a706c4c34a16891f84e7b,L,Karyawan Outsourcing,Surabaya,
56011,GE0039,Roby Dermawan,Produksi,1,827ccb0eea8a706c4c34a16891f84e7b,L,Karyawan Outsourcing,Surabaya,
56012,GE0040,Reza Dwi F,Produksi,1,827ccb0eea8a706c4c34a16891f84e7b,L,Karyawan Outsourcing,Surabaya,
56013,GE0043,Wahyu Efendi,Produksi,1,827ccb0eea8a706c4c34a16891f84e7b,L,Karyawan Outsourcing,Gresik,
58038,KE0038,M. Abdul Jalil,Produksi,1,827ccb0eea8a706c4c34a16891f84e7b,L,Karyawan Outsourcing,Surabaya,
58064,KE0064,Robit Adi Syaputra,Produksi,1,827ccb0eea8a706c4c34a16891f84e7b,L,Karyawan Outsourcing,Gresik,
58065,KE0066,Ihda Hubba Z,Produksi,1,827ccb0eea8a706c4c34a16891f84e7b,L,Karyawan Outsourcing,Gresik,
57046,RE0084,Teguh Wahyu M,Produksi,1,827ccb0eea8a706c4c34a16891f84e7b,L,Karyawan Outsourcing,Jombang,
57017,RE0085,Choirul Anam,Produksi,1,827ccb0eea8a706c4c34a16891f84e7b,L,Karyawan Outsourcing,Gresik,
57020,RE0089,Sofian Hadi Maulana,Produksi,1,827ccb0eea8a706c4c34a16891f84e7b,L,Karyawan Outsourcing,Surabaya,
57023,RE0092,Adi Wijaya,Produksi,1,827ccb0eea8a706c4c34a16891f84e7b,L,Karyawan Outsourcing,Gresik,
41753,KS0004,M. Choirul Anam,Produksi,1,827ccb0eea8a706c4c34a16891f84e7b,L,Karyawan Outsourcing,Jombang,
41754,KS0005,Imam Winarto,Produksi,1,827ccb0eea8a706c4c34a16891f84e7b,L,Karyawan Outsourcing,Bojonegoro,
41647,WS0001,Hendro Setiawan,Produksi,1,827ccb0eea8a706c4c34a16891f84e7b,L,Karyawan Outsourcing,Surabaya,
41548,WS0003,Chubba Fachlifi A,Produksi,1,827ccb0eea8a706c4c34a16891f84e7b,L,Karyawan Outsourcing,Surabaya,
41810,WS0007,Ruslan,Produksi,1,827ccb0eea8a706c4c34a16891f84e7b,L,Karyawan Outsourcing,Gresik,
41570,WS0012,Ardhi Gigi Saputro,Produksi,1,827ccb0eea8a706c4c34a16891f84e7b,L,Karyawan Outsourcing,Jombang,
41546,RS0004,Diidik Hartono,Produksi,1,827ccb0eea8a706c4c34a16891f84e7b,L,Karyawan Outsourcing,Surabaya,
41665,GS0003,Hero,Produksi,1,827ccb0eea8a706c4c34a16891f84e7b,L,Karyawan Outsourcing,Lamongan,
41853,PS0002,Mustofa,Produksi,1,827ccb0eea8a706c4c34a16891f84e7b,L,Karyawan Outsourcing,Surabaya,
41953,PS0004,Brillian,Produksi,1,827ccb0eea8a706c4c34a16891f84e7b,L,Karyawan Outsourcing,Jombang,
41764,PS0006,Dwi Arjuno,Produksi,1,827ccb0eea8a706c4c34a16891f84e7b,L,Karyawan Outsourcing,Mojokerto,
41566,KS0001,M. Taufiq,QC,3,827ccb0eea8a706c4c34a16891f84e7b,L,Karyawan Outsourcing,Jombang,
56032,GE0032,Muh Efendi,Bengkel,1,827ccb0eea8a706c4c34a16891f84e7b,L,Karyawan Outsourcing,Blitar,
56029,GE0029,Qomariatus Sa'adah,Adm Produksi,3,827ccb0eea8a706c4c34a16891f84e7b,P,Karyawan Outsourcing,Gresik,
58017,KE0017,Miftach Farid,Personalia,3,827ccb0eea8a706c4c34a16891f84e7b,L,Karyawan Outsourcing,Surabaya,
57021,RE0090,Joko Purnomo,Kebersihan,3,827ccb0eea8a706c4c34a16891f84e7b,L,Karyawan Outsourcing,Gresik,
56300,TE 0001,Hari Windoko,Sopir,3,827ccb0eea8a706c4c34a16891f84e7b,L,Karyawan Outsourcing,Jombang,
40163,CF0076,M. Nurhasim,Bengkel,3,827ccb0eea8a706c4c34a16891f84e7b,L,Karyawan Tetap,Jombang,
56001,GE0001,Sirojul  Huda,Bengkel,3,827ccb0eea8a706c4c34a16891f84e7b,L,Karyawan Outsourcing,Gresik,
58086,KE0086,Supriyanto,Bengkel,3,827ccb0eea8a706c4c34a16891f84e7b,L,Karyawan Outsourcing,Gresik,
41845,KS0003,Apriyan Zuro M,Bengkel,3,827ccb0eea8a706c4c34a16891f84e7b,L,Karyawan Outsourcing,Lamongan,
41993,RS0003,Moch Suyono,Bengkel,3,827ccb0eea8a706c4c34a16891f84e7b,L,Karyawan Outsourcing,Lamongan,
40226,CF0277,A. Affandi,Packing,3,827ccb0eea8a706c4c34a16891f84e7b,L,Karyawan Tetap,Gresik,
57022,RE0091,Miftachul Najid,Packing,3,827ccb0eea8a706c4c34a16891f84e7b,L,Karyawan Outsourcing,Jombang,
58089,KE0069,Sugi Hartono,Packing,3,827ccb0eea8a706c4c34a16891f84e7b,L,Karyawan Outsourcing,Gresik,
41632,KS0008,Nico Cahyono,Packing,3,827ccb0eea8a706c4c34a16891f84e7b,L,Karyawan Outsourcing,Jombang,
41676,WS0006,Erik Wijayanti,Packing,3,827ccb0eea8a706c4c34a16891f84e7b,P,Karyawan Outsourcing,Jombang,
41532,GS0004,Tomi Tri,Packing,3,827ccb0eea8a706c4c34a16891f84e7b,L,Karyawan Outsourcing,Lamongan,
41722,PS0001,Dian Agus Prasetyo,Packing,3,827ccb0eea8a706c4c34a16891f84e7b,L,Karyawan Outsourcing,Lamongan,
41985,PS0003,Zainal Arif,Packing,3,827ccb0eea8a706c4c34a16891f84e7b,L,Karyawan Outsourcing,Lamongan,
58067,KE0067,Rudi Yanto,Crusser,3,827ccb0eea8a706c4c34a16891f84e7b,L,Karyawan Outsourcing,Gresik,
40216,CF0377,Irwan Prastiyo,Packing,3,827ccb0eea8a706c4c34a16891f84e7b,L,Karyawan Tetap,Gresik,
40357,CF0548,Arif Rantau W,QC,3,827ccb0eea8a706c4c34a16891f84e7b,L,Karyawan Tetap,Sidoarjo,
41661,CF0541,Arbaiyah,Bahan,3,827ccb0eea8a706c4c34a16891f84e7b,P,Karyawan Tetap,Sidoarjo,
56030,GE0030,Hamidi,Produksi,2,827ccb0eea8a706c4c34a16891f84e7b,L,Karyawan Outsourcing,Madura,
56005,GE0036,Edwin Septian,Produksi,2,827ccb0eea8a706c4c34a16891f84e7b,L,Karyawan Outsourcing,Gresik,
56002,GE0041,Rudi Cahyono,Produksi,2,827ccb0eea8a706c4c34a16891f84e7b,L,Karyawan Outsourcing,Gresik,
56003,GE0042,Abd Basyith,Produksi,2,827ccb0eea8a706c4c34a16891f84e7b,L,Karyawan Outsourcing,Gresik,
58011,KE0011,Mamat Kirdy Subky,Produksi,2,827ccb0eea8a706c4c34a16891f84e7b,L,Karyawan Outsourcing,Magetan,
58066,KE0065,Moh Sirojul Mutakin,Produksi,2,827ccb0eea8a706c4c34a16891f84e7b,L,Karyawan Outsourcing,Surabaya,
58068,KE0068,Aris Setiyawan,Produksi,2,827ccb0eea8a706c4c34a16891f84e7b,L,Karyawan Outsourcing,Surabaya,
58088,KE0088,Dwi Aris Ramadhan,Produksi,2,827ccb0eea8a706c4c34a16891f84e7b,L,Karyawan Outsourcing,Surabaya,
57082,KE0082,Saiful Bashid,Produksi,2,827ccb0eea8a706c4c34a16891f84e7b,L,Karyawan Outsourcing,Gresik,
57024,RE0083,Sandi Setiyawan,Produksi,2,827ccb0eea8a706c4c34a16891f84e7b,L,Karyawan Outsourcing,Gresik,
41575,KS0002,Rusdian Nur,Produksi,2,827ccb0eea8a706c4c34a16891f84e7b,L,Karyawan Outsourcing,Surabaya,
41801,KS0006,Eko Sulistiyono,Produksi,2,827ccb0eea8a706c4c34a16891f84e7b,L,Karyawan Outsourcing,Blora,
41964,KS0007,Priyo Sunarso,Produksi,2,827ccb0eea8a706c4c34a16891f84e7b,L,Karyawan Outsourcing,Lamongan,
41875,KS0009,Andi Ihksan,Produksi,2,827ccb0eea8a706c4c34a16891f84e7b,L,Karyawan Outsourcing,Lamongan,
41896,WS0002,Muslihun,Produksi,2,827ccb0eea8a706c4c34a16891f84e7b,L,Karyawan Outsourcing,Lamongan,
41817,WS0008,Budi Prawita,Produksi,2,827ccb0eea8a706c4c34a16891f84e7b,L,Karyawan Outsourcing,Gresik,
41796,WS0009,Dimas Primantara,Produksi,2,827ccb0eea8a706c4c34a16891f84e7b,L,Karyawan Outsourcing,Jombang,
41835,WS0010,Tsalis Fahmi,Produksi,2,827ccb0eea8a706c4c34a16891f84e7b,L,Karyawan Outsourcing,Lamongan,
41999,WS0011,M. Bahar Filani,Produksi,2,827ccb0eea8a706c4c34a16891f84e7b,L,Karyawan Outsourcing,Gresik,
41591,WS0013,Ach. Choirus Zen,Produksi,2,827ccb0eea8a706c4c34a16891f84e7b,L,Karyawan Outsourcing,Surabaya,
41737,WS0014,Marcellius Edwin,Produksi,2,827ccb0eea8a706c4c34a16891f84e7b,L,Karyawan Outsourcing,Malang,
41911,RS0001,Hanif Azhar,Produksi,2,827ccb0eea8a706c4c34a16891f84e7b,L,Karyawan Outsourcing,Gresik,
41723,RS0002,Sony Santoso,Produksi,2,827ccb0eea8a706c4c34a16891f84e7b,L,Karyawan Outsourcing,Jombang,
41957,GS0001,Achmad Murdianto,Produksi,2,827ccb0eea8a706c4c34a16891f84e7b,L,Karyawan Outsourcing,Gresik,
41705,GS0002,Fendi Indra K,Produksi,2,827ccb0eea8a706c4c34a16891f84e7b,L,Karyawan Outsourcing,Bojonegoro,
41710,GS0005,Wildan,Produksi,2,827ccb0eea8a706c4c34a16891f84e7b,L,Karyawan Outsourcing,Surabaya,
40145,CF0364,Moh Muchtar,QC,3,827ccb0eea8a706c4c34a16891f84e7b,L,Karyawan Tetap,Gresik,
41812,RS0005,M. Aziz,Bengkel,3,827ccb0eea8a706c4c34a16891f84e7b,L,Karyawan Outsourcing,Lamongan,
35006,K40006,Bambang Wiyono,Satpam,1,827ccb0eea8a706c4c34a16891f84e7b,L,Karyawan Tetap,Lamongan,
35031,K40031,Sukarno,Satpam,2,827ccb0eea8a706c4c34a16891f84e7b,L,Karyawan Tetap,Sidoarjo,
65005,TE0061,Suparman,HRD,3,827ccb0eea8a706c4c34a16891f84e7b,L,Staff,Surabaya,
65004,TE0086,Megawati,Gudang PLK,3,827ccb0eea8a706c4c34a16891f84e7b,P,Staff,Gresik,
65003,TE0121,Siswanto,Bengkel,3,827ccb0eea8a706c4c34a16891f84e7b,L,Staff,Surabaya,
65012,TE0116,Suwanta,Produksi,2,827ccb0eea8a706c4c34a16891f84e7b,L,Staff,Sidoarjo,
65014,FS0202,Sutanto Tanu Jaya,Produksi,2,827ccb0eea8a706c4c34a16891f84e7b,L,Staff,Mojokerto,
65013,FS0196,Untung Hartaji,Produksi,2,827ccb0eea8a706c4c34a16891f84e7b,L,Staff,Gresik,
50021,FS0151,Rony Hartanto,Produksi,2,827ccb0eea8a706c4c34a16891f84e7b,L,Staff,Pasuruan,
